<svg width="1049" height="988" viewBox="0 0 1049 988" fill="none" xmlns="http://www.w3.org/2000/svg">
<path opacity="0.7" d="M-58.6427 762.166C-58.6427 762.166 38.2869 936.062 246.616 977.763C454.945 1019.47 663.872 922.102 835.156 847.76C1006.44 773.418 1085.13 613.945 1031.31 462.372C977.495 310.799 829.431 334.508 677.583 208.665C525.735 82.8229 504.478 26.6086 308.088 2.40923C111.697 -21.7902 -84.0064 156.522 -115.457 388.044C-146.907 619.565 -58.6427 762.166 -58.6427 762.166Z" fill="#F6FAFF"/>
</svg>
